{
  "name": "",
  "css_prefix_text": "icon-",
  "css_use_suffix": false,
  "hinting": true,
  "units_per_em": 1000,
  "ascent": 850,
  "glyphs": [
    {
      "uid": "f3dc2d6d8fe9cf9ebff84dc260888cdf",
      "css": "heart-empty",
      "code": 59392,
      "src": "fontawesome"
    },
    {
      "uid": "d73eceadda1f594cec0536087539afbf",
      "css": "cora",
      "code": 59393,
      "src": "fontawesome"
    },
    {
      "uid": "31951fbb9820ed0690f675b3d495c8da",
      "css": "chat",
      "code": 61670,
      "src": "fontawesome"
    },
    {
      "uid": "d589e468da8556b0701206cfdfcfc567",
      "css": "transgender",
      "code": 61988,
      "src": "fontawesome"
    },
    {
      "uid": "3fce1eca43f917c8f23e532749abae5d",
      "css": "me",
      "code": 62142,
      "src": "fontawesome"
    },
    {
      "uid": "68eb56470b836f19335231578515153e",
      "css": "estado",
      "code": 62140,
      "src": "fontawesome"
    },
    {
      "uid": "6364d85e960f23b9a843a506387e7970",
      "css": "info-outline",
      "code": 59394,
      "src": "typicons"
    },
    {
      "uid": "05de65980bb8a3711da037c2cc25f4f8",
      "css": "camera-outline",
      "code": 59395,
      "src": "typicons"
    },
    {
      "uid": "547c96163e3724fa7384f6ddce0c10e7",
      "css": "compass",
      "code": 59396,
      "src": "typicons"
    },
    {
      "uid": "381da2c2f7fd51f8de877c044d7f439d",
      "css": "picture",
      "code": 59397,
      "src": "fontawesome"
    },
    {
      "uid": "e99461abfef3923546da8d745372c995",
      "css": "cog",
      "code": 59398,
      "src": "fontawesome"
    },
    {
      "uid": "1ea8ad6dbe1ae9a73565ad16cf88de19",
      "css": "location",
      "code": 59399,
      "src": "linecons"
    },
    {
      "uid": "06301c50d89b5d3e651bd07ebd6d7de7",
      "css": "cancel",
      "code": 59400,
      "src": "mfglabs"
    },
    {
      "uid": "6c83092421441296f5c4e8074b0cf32c",
      "css": "distancia",
      "code": 61725,
      "src": "fontawesome"
    },
    {
      "uid": "6274e0601f2feef7eced89146e708de0",
      "css": "user-add",
      "code": 59401,
      "src": "entypo"
    },
    {
      "uid": "8bf56386082752a2acc88a1ddf6851a8",
      "css": "at",
      "code": 59402,
      "src": "typicons"
    },
    {
      "uid": "818981e2ad316f18ae61cfa805d41309",
      "css": "user-circle",
      "code": 62141,
      "src": "fontawesome"
    },
    {
      "uid": "b86df50a2d898bfcd371fa86c0b8b2fb",
      "css": "user-o",
      "code": 62144,
      "src": "fontawesome"
    },
    {
      "uid": "8beac4a5fd5bed9f82ca7a96cc8ba218",
      "css": "key",
      "code": 59403,
      "src": "entypo"
    },
    {
      "uid": "c1f1975c885aa9f3dad7810c53b82074",
      "css": "lock",
      "code": 59404,
      "src": "fontawesome"
    },
    {
      "uid": "ccf71c505b173c61a2e4e8c8cb907dfa",
      "css": "chat-alt",
      "code": 59405,
      "src": "typicons"
    },
    {
      "uid": "72681d2825fef7fd83711278f845547b",
      "css": "cc-by",
      "code": 59406,
      "src": "entypo"
    },
    {
      "uid": "3a6f0140c3a390bdb203f56d1bfdefcb",
      "css": "gauge",
      "code": 59407,
      "src": "entypo"
    },
    {
      "uid": "24aba8757d4a7b49568c98a577a85df3",
      "css": "cancel-outline",
      "code": 59408,
      "src": "typicons"
    },
    {
      "uid": "1dq4tek4k8ea7zlj4kc3w83itnutaxg5",
      "css": "cancel-1",
      "code": 59409,
      "src": "typicons"
    },
    {
      "uid": "x8m4z7b33cv1h2s784tjlam56uq40wtd",
      "css": "users",
      "code": 59410,
      "src": "typicons"
    },
    {
      "uid": "a1d4b614f12cfe2b5aa66313ad88c90c",
      "css": "users-outline",
      "code": 59411,
      "src": "typicons"
    }
  ]
}